An outbreak of gastroenteritis in Stegen, Germany, June 1998 ·
…
path_to_data <- here("data", "stegen_raw.xlsx")
path_to_data
## [1] "/home/zkamvar/Documents/Websites/recon-learn/data/stegen_raw.xlsx"

n.b. the value of path_to_data will not be the what you see in this
tutorial. It will be the location of this data set on your
computer.

stegen <- read_excel(path_to_data)

To look at the content of the dataset, we can use either of these
commands:

stegen
## # A tibble: 291 x 23
##    `Unique key`   ill `Date-onset`   SEX   Age tiramisu tportion wmousse
##           <dbl> <dbl> <chr>        <dbl> <dbl>    <dbl>    <dbl>   <dbl>
##  1          210     1 1998-06-27       1    18        1        3       0
##  2           12     1 1998-06-27       0    57        1        1       0
##  3          288     1 1998-06-27       1    56        0        0       0
##  4          186     1 1998-06-27       0    17        1        1       1
##  5           20     1 1998-06-27       1    19        1        2       0
##  6          148     1 1998-06-27       0    16        1        2       1
##  7          201     1 1998-06-27       0    19        1        3       0
##  8          106     1 1998-06-27       0    19        1        2       1
##  9          272     1 1998-06-27       1    40        1        2       1
## 10           50     1 1998-06-27       0    53        1        1       1
## # ... with 281 more rows, and 15 more variables: dmousse <dbl>,
## #   mousse <dbl>, mportion <dbl>, Beer <dbl>, redjelly <dbl>, `Fruit
## #   salad` <dbl>, tomato <dbl>, mince <dbl>, salmon <dbl>,
## #   horseradish <dbl>, chickenwin <dbl>, roastbeef <dbl>, PORK <dbl>,
## #   latitude <dbl>, longitude <dbl>
…
to_keep <- c('tiramisu', 'wmousse', 'dmousse', 'mousse', 'beer', 'redjelly',
             'fruit_salad', 'tomato', 'mince', 'salmon', 'horseradish',
             'chickenwin', 'roastbeef', 'pork') 
to_keep
##  [1] "tiramisu"    "wmousse"     "dmousse"     "mousse"      "beer"       
##  [6] "redjelly"    "fruit_salad" "tomato"      "mince"       "salmon"     
## [11] "horseradish" "chickenwin"  "roastbeef"   "pork"
food <- stegen[to_keep]
food
## # A tibble: 291 x 14
##    tiramisu wmousse dmousse mousse  beer redjelly fruit_salad tomato mince
##       <dbl>   <dbl>   <dbl>  <dbl> <dbl>    <dbl>       <dbl>  <dbl> <dbl>
##  1        1       0       1      1     0        0           0      0     0
##  2        1       0       1      1     0        0           1      0     1
##  3        0       0       0      0     0        0           0      1     1
##  4        1       1       0      1     0        1           0      0     0
##  5        1       0       0      0     1        0           0      0     0
##  6        1       1       1      1     0        0           1      0     1
##  7        1       0       1      1     0        0           1      0     0
##  8        1       1       1      1     0        1           1      0     0
##  9        1       1       1      1     1        0           0      1     0
## 10        1       1       1      1     0        1           0      0     0
## # ... with 281 more rows, and 5 more variables: salmon <dbl>,
## #   horseradish <dbl>, chickenwin <dbl>, roastbeef <dbl>, pork <dbl>
…
